﻿Field=#~Integer~#~50|Field=Comment~String~Comment~100|Field=Description~String~Description~100|Field=Designator~String~Designator~100|Field=Footprint~String~Footprint~100|Field=LibRef~String~LibRef~100|Field=Quantity~Integer~Quantity~100|ReportField=Currency~<none>|ReportField=ProductionQuantity~1|ReportField=ProjectFileName~LVD V.9.PrjPcb|ReportField=ProjectFullPath~E:\Giwiin\LVD\LVD V.9\LVD V.9\LVD V.9.PrjPcb|ReportField=Title~Bill of Materials For Project [LVD V.9.PrjPcb] (No PCB Document Selected)|ReportField=TotalQuantity~48|ReportField=ReportTime~11:10:45|ReportField=ReportDate~21/12/2021|ReportField=ReportDateTime~21/12/2021 11:10:45|ReportField=OutputName~Bill of Materials|ReportField=OutputType~BOM_PartType|ReportField=GeneratorName~BOM|ReportField=GeneratorDescription~Bill of Materials|ReportField=VariantName~None|ReportField=Address1~|ReportField=Address2~|ReportField=Address3~|ReportField=Address4~|ReportField=Application_BuildNumber~|ReportField=ApprovedBy~|ReportField=Author~|ReportField=CheckedBy~|ReportField=CompanyName~|ReportField=CurrentDate~21/12/2021|ReportField=CurrentTime~11:10:01|ReportField=Date~|ReportField=DocumentFullPathAndName~E:\Giwiin\LVD\LVD V.9\LVD V.9\ADC.SchDoc|ReportField=DocumentName~ADC.SchDoc|ReportField=DocumentNumber~|ReportField=DrawnBy~|ReportField=Engineer~|ReportField=ImagePath~|ReportField=ModifiedDate~21/12/2021|ReportField=Organization~|ReportField=ProjectName~LVD V.9.PrjPcb|ReportField=Revision~|ReportField=Rule~|ReportField=SheetNumber~|ReportField=SheetTotal~|ReportField=Time~|ReportField=Title~|ReportField=DataSourceFileName~LVD V.9.PrjPcb|ReportField=DataSourceFullPath~E:\Giwiin\LVD\LVD V.9\LVD V.9\LVD V.9.PrjPcb
1|Cap Pol1|Polarized Capacitor (Radial)|C1, C2, C3, C4|CAPK|Cap Pol1|4
2|100uF|Capacitor|C5, C7|elco105|Cap2|2
3|2200uF|Capacitor|C6, C8|cap 2200uf|Cap2|2
4|D Zener 56V|Zener Diode|D1|DO-41|D Zener|1
5|1N5822|Schottky Diode|D2, D4|DO-41|D Schottky|2
6|LED0|Typical INFRARED GaAs LED|D3, D5|1608_[0603] LED|LED0|2
7|LED2|Typical RED, GREEN, YELLOW, AMBER GaAs LED|DS1, DS2, DS3|1608_[0603] LED|LED2|3
8|G3MB-202P-5VDC|Single-Pole Single-Throw Relay|K1, K2, K3|ssr|Relay-SPST|3
9|100uH|Inductor|L1, L2|inductor100|Inductor|2
10|Header 2|Header, 2-Pin|P1|pluggable 7.62 2p|Header 2|1
11|BTS|Header, 2-Pin|P2|pluggable 7.62 2p|Header 2|1
12|UTL 1|Header, 2-Pin|P3|pluggable 7.62 2p|Header 2|1
13|VSAT BTS|Header, 2-Pin|P4|pluggable 7.62 2p|Header 2|1
14|H7P1002DS|P-Channel Power MOSFET|Q1, Q2|DPAK228P970X238-3N|PMOS-2|2
15|MPSA42|NPN Bipolar Transistor|Q3, Q4, Q5|TO-226-AA|NPN|3
16|ERJ1T|Thick Film Chip Resistor, 1 Ohm to 1M Ohm Range, 5% Tolerance, 2512 Size, 1 W|R1, R2, R3, R4|AXIAL-0.4|ERJ1T|4
17|ERAS|Metal Film Thermosensitive Chip Resistor, 0.56 Ohm to 10k Ohm Range, 5% Tolerance, 0805 Size, 0.1 W|R5, R6, R12|1608_[0603] Resistor|ERAS|3
18|10K|Resistor|R7, R13|1608_[0603] Resistor|Res1|2
19|36k|Resistor|R8|1608_[0603] Resistor|Res1|1
20|ERA6Y|Rectangular Thick Film Chip Resistor, 10 Ohm to 1M Ohm Range, 0.1% and 0.5% Tolerance, 0805 Size, 0.1 W|R9, R10, R14|1608_[0603] Resistor|ERA6Y|3
21|2k|Resistor|R11|1608_[0603] Resistor|Res1|1
22|NCP117 3.3v||U1|SOT230P700X180-4N|ams1117 5v|1
23|ams1117 3.3v||U2|SOT230P700X180-4N|ams1117 5v|1
24|LM2576HV||U3|tl2575hvs|TL2575HVS|1
25|TL2575HV||U4|tl2575hvs|TL2575HVS|1
