Change Component Designator: Old Designator=C1 New Designator=C8
Change Component Designator: Old Designator=C1 New Designator=C9
Change Component Designator: Old Designator=C1 New Designator=C10
Change Component Designator: Old Designator=C9 New Designator=C11
Change Component Designator: Old Designator=P6 New Designator=P7
Change Component Designator: Old Designator=R9 New Designator=R8
Change Component Designator: Old Designator=R9 New Designator=R10
Change Component Designator: Old Designator=R13 New Designator=R12
Change Component Designator: Old Designator=U4 New Designator=U5
Change Component Designator: Old Designator=U5 New Designator=U8
Change Component Designator: Old Designator=U14 New Designator=U6
Change Component Designator: Old Designator=U? New Designator=U7
